{
    "haapi": {
        "request": {
            "id": "demo0000-0000-0000-0000-100000000000",
            "system": "danads-api",
            "haapiVersion": "1",
            "type": "user/signout",
            "preSharedKey": null,
            "userToken": null,
            "callbackUrl": null,
            "payload": {
                "email": "advertiser@hulu.com"
            }
        },
        "response": {
            "id": "demo0000-0000-0000-0000-200000000000",
            "system": "haapi",
            "statusCode": "0",
            "statusMsg": "OK",
            "payload": {
                "message": "You have successfully signed out."
            },
            "received": "2020-07-07T14:45:01.603+0000",
            "duration": 70
        }
    }
}
