{
    "haapi": {
        "request": {
            "id": "demo0000-0000-0000-0000-100000000000",
            "system": "danads-api",
            "haapiVersion": "1",
            "type": "account/search",
            "preSharedKey": null,
            "userToken": null,
            "callbackUrl": null,
            "payload": {}
        },
        "response": {
            "id": "demo0000-0000-0000-0000-200000000000",
            "system": "haapi",
            "statusCode": "0",
            "statusMsg": "OK",
            "payload": {
                "next": null,
                "limit": 100,
                "accounts": [
                    {
                        "manualReviewReason": null,
                        "createdAt": "2020-03-04T23:14:55.000+0000",
                        "email": "advertiser1@hulu.com",
                        "bookedValue": 35200,
                        "name": "Demo Advertiser #1",
                        "type": "ADVERTISER",
                        "phoneNumber": "+1-310-234-0000",
                        "id": "demo0000-adve-rtis-er00-000000000000",
                        "status": "ACTIVE",
                        "campaignCount": 2
                    },
                    {
                        "manualReviewReason": null,
                        "createdAt": "2020-03-04T23:05:41.000+0000",
                        "email": "advertiser2@hulu.com",
                        "bookedValue": 32000,
                        "name": "Demo Advertiser #2",
                        "type": "ADVERTISER",
                        "phoneNumber": "+1-310-234-0010",
                        "id": "demo0000-adve-rtis-er00-000000000000",
                        "status": "ACTIVE",
                        "campaignCount": 1
                    },
                    {
                        "manualReviewReason": null,
                        "createdAt": "2020-03-04T22:43:02.000+0000",
                        "email": "advertiser3@hulu.com",
                        "bookedValue": 39772.6,
                        "name": "Demo Advertiser #3",
                        "type": "ADVERTISER",
                        "phoneNumber": "+1 (310) 444-0554",
                        "id": "demo0000-adve-rtis-er00-000000000000",
                        "status": "INACTIVE_UNPAID",
                        "campaignCount": 4
                    },
                    {
                        "manualReviewReason": null,
                        "createdAt": "2020-03-04T22:29:34.000+0000",
                        "email": "advertiser4@hulu.com",
                        "bookedValue": 455550,
                        "name": "Demo Advertiser #4",
                        "type": "ADVERTISER",
                        "phoneNumber": "+1-310-234-5678",
                        "id": "demo0000-adve-rtis-er00-000000000000",
                        "status": "ACTIVE",
                        "campaignCount": 16
                    },
                    {
                        "manualReviewReason": null,
                        "createdAt": "2020-03-04T22:22:19.000+0000",
                        "email": "advertiser5@hulu.com",
                        "bookedValue": 0,
                        "name": "Demo Advertiser #5",
                        "type": "ADVERTISER",
                        "phoneNumber": "+1-480-434-1111",
                        "id": "demo0000-adve-rtis-er00-000000000000",
                        "status": "ACTIVE",
                        "campaignCount": 0
                    }
                ]
            },
            "received": "2020-06-30T09:46:34.561+0000",
            "duration": 5889
        }
    }
}
