{
    "haapi": {
        "request": {
            "id": "demo0000-0000-0000-0000-100000000000",
            "system": "danads-api",
            "haapiVersion": "1",
            "type": "account/signup",
            "preSharedKey": null,
            "userToken": null,
            "callbackUrl": null,
            "payload": {
                "email": "advertiser@hulu.com",
                "firstName": "Demo",
                "lastName": "Advertiser",
                "companyName": "Demo Company",
                "companyAddress": {
                    "line1": "Test",
                    "line2": "",
                    "state": "NY",
                    "city": "Test",
                    "country": "US",
                    "zipcode": "12345"
                },
                "phoneNumber": "+1 (234) 567-8910",
                "identificationKey": "test_key"
            }
        },
        "response": {
            "id": "demo0000-0000-0000-0000-200000000000",
            "system": "haapi",
            "statusCode": "0",
            "statusMsg": "OK",
            "payload": {
                "message": "Sign up request accepted."
            },
            "received": "2020-06-30T09:46:34.561+0000",
            "duration": 5889
        }
    }
}
