{
    "haapi": {
        "request": {
            "id": "demo0000-0000-0000-0000-100000000000",
            "system": "danads-api",
            "haapiVersion": "1",
            "type": "campaign/price",
            "preSharedKey": null,
            "userToken": null,
            "callbackUrl": null,
            "payload": {}
        },
        "response": {
            "id": "demo0000-0000-0000-0000-200000000000",
            "system": "haapi",
            "statusCode": "0",
            "statusMsg": "OK",
            "payload": {
                "costModel": "CPM",
                "unitCost": 32
            },
            "received": "2020-07-03T06:56:32.205+0000",
            "duration": 31
        }
    }
}
