{
  "IcoMoonType": "selection",
  "icons": [
    {
      "icon": {
        "paths": [
          "M490.371 778.506c10.843-74.061 43.755-143.896 97.756-197.56 64.522-64.121 100.012-156.51 85.696-256.474-19.234-134.311-131.935-241.191-269.218-256.325-185.964-20.503-343.441 121.791-343.441 300.233 0 82.767 33.722 157.67 88.431 212.201 54.047 53.873 87.209 123.745 98.14 197.926h242.637z",
          "M174.23 283.18c33.298-73.075 108.051-124.123 194.715-124.123",
          "M155.764 346.485h0.002",
          "M490.371 836.462l-240.938 46.828",
          "M478.705 910.995l-240.938 46.828"
        ],
        "attrs": [
          {
            "fill": "none",
            "strokeLinejoin": "round",
            "strokeLinecap": "round",
            "strokeMiterlimit": "4",
            "strokeWidth": 56.888888888888886
          },
          {
            "fill": "none",
            "strokeLinejoin": "round",
            "strokeLinecap": "round",
            "strokeMiterlimit": "4",
            "strokeWidth": 56.888888888888886
          },
          {
            "fill": "none",
            "strokeLinejoin": "round",
            "strokeLinecap": "round",
            "strokeMiterlimit": "4",
            "strokeWidth": 56.888888888888886
          },
          {
            "fill": "none",
            "strokeLinejoin": "round",
            "strokeLinecap": "round",
            "strokeMiterlimit": "4",
            "strokeWidth": 56.888888888888886
          },
          {
            "fill": "none",
            "strokeLinejoin": "round",
            "strokeLinecap": "round",
            "strokeMiterlimit": "4",
            "strokeWidth": 56.888888888888886
          }
        ],
        "width": 740,
        "isMulticolor": false,
        "isMulticolor2": false,
        "grid": 0,
        "tags": [
          "tip-icon"
        ]
      },
      "attrs": [
        {
          "fill": "none",
          "strokeLinejoin": "round",
          "strokeLinecap": "round",
          "strokeMiterlimit": "4",
          "strokeWidth": 56.888888888888886
        },
        {
          "fill": "none",
          "strokeLinejoin": "round",
          "strokeLinecap": "round",
          "strokeMiterlimit": "4",
          "strokeWidth": 56.888888888888886
        },
        {
          "fill": "none",
          "strokeLinejoin": "round",
          "strokeLinecap": "round",
          "strokeMiterlimit": "4",
          "strokeWidth": 56.888888888888886
        },
        {
          "fill": "none",
          "strokeLinejoin": "round",
          "strokeLinecap": "round",
          "strokeMiterlimit": "4",
          "strokeWidth": 56.888888888888886
        },
        {
          "fill": "none",
          "strokeLinejoin": "round",
          "strokeLinecap": "round",
          "strokeMiterlimit": "4",
          "strokeWidth": 56.888888888888886
        }
      ],
      "properties": {
        "order": 169,
        "id": 0,
        "name": "tip-icon",
        "prevSize": 32
      },
      "setIdx": 0,
      "setId": 2,
      "iconIdx": 0
    },
    {
      "icon": {
        "paths": [
          "M695.427 764.401l220.943 220.943c19.046 19.046 49.92 19.046 68.959 0 19.046-19.039 19.046-49.92 0-68.959l-220.943-220.944c55.698-70.573 88.942-159.693 88.942-256.576 0-228.909-185.569-414.476-414.477-414.476s-414.476 185.567-414.476 414.476c0 228.909 185.568 414.479 414.476 414.479 96.884 0 186.003-33.243 256.576-88.942zM755.807 438.864c0 175.048-141.908 316.95-316.956 316.95s-316.952-141.902-316.952-316.95c0-175.048 141.904-316.952 316.952-316.952s316.956 141.904 316.956 316.952z"
        ],
        "attrs": [
          {}
        ],
        "isMulticolor": false,
        "isMulticolor2": false,
        "grid": 0,
        "tags": [
          "search"
        ]
      },
      "attrs": [
        {}
      ],
      "properties": {
        "order": 205,
        "id": 0,
        "name": "search",
        "prevSize": 32
      },
      "setIdx": 0,
      "setId": 0,
      "iconIdx": 0
    },
    {
      "icon": {
        "paths": [
          "M512 1024c282.77 0 512-229.23 512-512s-229.23-512-512-512c-282.77 0-512 229.23-512 512s229.23 512 512 512zM512 930.909c-231.357 0-418.909-187.552-418.909-418.909s187.552-418.909 418.909-418.909c231.357 0 418.909 187.552 418.909 418.909s-187.552 418.909-418.909 418.909z",
          "M325.818 372.364c0-25.706 20.839-46.545 46.545-46.545h279.273c25.706 0 46.545 20.839 46.545 46.545v279.273c0 25.706-20.839 46.545-46.545 46.545h-279.273c-25.706 0-46.545-20.839-46.545-46.545v-279.273zM418.909 418.909v186.182h186.182v-186.182h-186.182z"
        ],
        "attrs": [
          {},
          {}
        ],
        "isMulticolor": false,
        "isMulticolor2": false,
        "tags": [
          "stop-circle"
        ],
        "grid": 0
      },
      "attrs": [
        {},
        {}
      ],
      "properties": {
        "order": 2,
        "id": 0,
        "name": "stop-circle",
        "prevSize": 32
      },
      "setIdx": 1,
      "setId": 1,
      "iconIdx": 0
    },
    {
      "icon": {
        "paths": [
          "M947.786 372.724h-328.498v-32.328h43.372c48.742 0 77.856-54.71 50.306-95.144l-148.97-218.654c-11.346-16.654-30.152-26.598-50.308-26.598-20.154 0-38.96 9.944-50.306 26.598l-148.97 218.652c-27.448 40.284 1.376 95.146 50.304 95.146h43.372v32.328c-346.546 0-332.744-0.074-335.15 0.166-17.040 1.604-30.462 16.088-30.462 33.574v583.796c0 17.18 12.862 33.74 36.108 33.74h869.204c18.634 0 33.74-15.106 33.74-33.74v-583.796c-0.002-18.732-15.282-33.74-33.742-33.74zM377.214 272.918l136.474-200.312 136.474 200.312h-64.614c-18.634 0-33.74 15.106-33.74 33.74 0 19.724 0 159.382 0 176.906h-76.244c0-17.524 0-157.182 0-176.906 0-18.634-15.106-33.74-33.74-33.74h-64.61zM408.088 440.204v55.1c0 30.734 25.006 55.74 55.74 55.74h99.72c30.736 0 55.74-25.006 55.74-55.74v-55.1h232.744l-340.032 273.6-340.032-273.6h236.12zM109.954 476.918l305.48 245.802-305.48 205.736v-451.538zM189.078 956.52l281.398-189.514c24.19 19.464 55.026 22.55 83.164-0.094l282.728 189.61h-647.29zM914.046 927.364l-305.332-204.766 305.332-245.68v450.446z"
        ],
        "attrs": [
          {}
        ],
        "isMulticolor": false,
        "isMulticolor2": false,
        "tags": [
          "mail"
        ],
        "grid": 0
      },
      "attrs": [
        {}
      ],
      "properties": {
        "order": 28,
        "id": 1,
        "name": "mail-resend",
        "prevSize": 32
      },
      "setIdx": 1,
      "setId": 1,
      "iconIdx": 1
    },
    {
      "icon": {
        "paths": [
          "M710.84 128.084l-481.618 261.626h-166.534c-15.065 0-27.377 12.149-27.377 27.377v191.157c0 15.065 12.149 27.377 27.377 27.377h76.3c-5.671 77.598 38.879 152.602 113.236 183.381 22.841 9.557 128.302 36.774 214.161-54.593l244.615 132.838c30.78 11.339 40.5-14.579 40.5-23.976v-721.212c-0.163-9.557-9.234-34.343-40.661-23.974zM90.067 581.027v-136.727h118.907v136.727h-118.907zM273.285 768.621c-53.458-22.032-85.048-76.949-79.216-132.838h35.478l187.754 102.058c-36.451 38.23-93.635 51.677-144.016 30.78zM263.565 592.206v-158.758l433.182-235.544v629.358l-433.182-235.055z",
          "M928.888 286.354c-10.53-10.853-27.703-11.502-38.719-0.972l-81.97 78.244c-10.853 10.53-11.988 28.512-0.972 38.719 13.284 11.825 33.534 5.831 38.719 0.649l81.97-77.921c10.853-10.53 11.502-27.703 0.972-38.719z",
          "M991.903 485.287h-112.913c-15.065 0-27.377 12.149-27.377 27.377 0 15.065 12.149 27.377 27.377 27.377h112.913c15.065 0 27.377-12.149 27.377-27.377s-12.311-27.377-27.377-27.377z",
          "M927.915 700.421l-81.97-77.921c-10.853-10.53-28.349-10.044-38.719 0.972-10.53 10.853-10.044 28.349 0.972 38.719l81.97 77.921c5.185 5.022 26.568 11.179 38.719-0.972 10.693-10.695 10.044-28.352-0.972-38.719z"
        ],
        "attrs": [
          {},
          {},
          {},
          {}
        ],
        "isMulticolor": false,
        "isMulticolor2": false,
        "tags": [
          "megaphone-svg"
        ],
        "grid": 0
      },
      "attrs": [
        {},
        {},
        {},
        {}
      ],
      "properties": {
        "order": 7,
        "id": 2,
        "name": "megaphone-svg",
        "prevSize": 32
      },
      "setIdx": 1,
      "setId": 1,
      "iconIdx": 2
    },
    {
      "icon": {
        "paths": [
          "M1434.801 139.921l-448 320c-35.734 25.525-35.734 78.633 0 104.158l448 320c42.36 30.257 101.199-0.023 101.199-52.079v-640c0-52.056-58.84-82.336-101.199-52.079zM1408 316.364v391.272l-273.89-195.636 273.89-195.636z",
          "M192 0h704c106.039 0 192 85.961 192 192v640c0 106.039-85.961 192-192 192h-704c-106.039 0-192-85.961-192-192v-640c0-106.039 85.961-192 192-192zM192 128c-35.346 0-64 28.654-64 64v640c0 35.346 28.654 64 64 64h704c35.346 0 64-28.654 64-64v-640c0-35.346-28.654-64-64-64h-704z"
        ],
        "width": 1536,
        "attrs": [
          {},
          {}
        ],
        "isMulticolor": false,
        "isMulticolor2": false,
        "tags": [
          "video"
        ],
        "grid": 0
      },
      "attrs": [
        {},
        {}
      ],
      "properties": {
        "order": 25,
        "id": 3,
        "name": "video",
        "prevSize": 32
      },
      "setIdx": 1,
      "setId": 1,
      "iconIdx": 3
    },
    {
      "icon": {
        "paths": [
          "M512 1024c282.77 0 512-229.23 512-512s-229.23-512-512-512c-282.77 0-512 229.23-512 512s229.23 512 512 512zM512 930.909c-231.357 0-418.909-187.552-418.909-418.909s187.552-418.909 418.909-418.909c231.357 0 418.909 187.552 418.909 418.909s-187.552 418.909-418.909 418.909z",
          "M372.364 325.818c0-37.176 41.432-59.349 72.364-38.728l279.273 186.182c27.636 18.424 27.636 59.033 0 77.456l-279.273 186.182c-30.932 20.621-72.364-1.553-72.364-38.728v-372.364zM465.455 412.789v198.422l148.816-99.211-148.816-99.211z"
        ],
        "attrs": [
          {},
          {}
        ],
        "isMulticolor": false,
        "isMulticolor2": false,
        "tags": [
          "play-circle"
        ],
        "grid": 0
      },
      "attrs": [
        {},
        {}
      ],
      "properties": {
        "order": 3,
        "id": 4,
        "name": "play-circle",
        "prevSize": 32
      },
      "setIdx": 1,
      "setId": 1,
      "iconIdx": 4
    },
    {
      "icon": {
        "paths": [
          "M984.615 512c0 261.018-211.597 472.615-472.615 472.615s-472.615-211.597-472.615-472.615c0-261.018 211.597-472.615 472.615-472.615s472.615 211.597 472.615 472.615z",
          "M374.469 370.215c22.942-65.219 89.579-104.382 157.72-92.693s117.918 70.819 117.815 139.955c0 94.523-141.785 141.785-141.785 141.785",
          "M512 701.046v47.262"
        ],
        "attrs": [
          {
            "fill": "none",
            "strokeLinejoin": "round",
            "strokeLinecap": "round",
            "strokeMiterlimit": "4",
            "strokeWidth": 59.07692307692308
          },
          {
            "fill": "none",
            "strokeLinejoin": "round",
            "strokeLinecap": "round",
            "strokeMiterlimit": "4",
            "strokeWidth": 59.07692307692308
          },
          {
            "fill": "none",
            "strokeLinejoin": "round",
            "strokeLinecap": "round",
            "strokeMiterlimit": "4",
            "strokeWidth": 59.07692307692308
          }
        ],
        "isMulticolor": false,
        "isMulticolor2": false,
        "tags": [
          "help-circle-header"
        ],
        "grid": 0
      },
      "attrs": [
        {
          "fill": "none",
          "strokeLinejoin": "round",
          "strokeLinecap": "round",
          "strokeMiterlimit": "4",
          "strokeWidth": 59.07692307692308
        },
        {
          "fill": "none",
          "strokeLinejoin": "round",
          "strokeLinecap": "round",
          "strokeMiterlimit": "4",
          "strokeWidth": 59.07692307692308
        },
        {
          "fill": "none",
          "strokeLinejoin": "round",
          "strokeLinecap": "round",
          "strokeMiterlimit": "4",
          "strokeWidth": 59.07692307692308
        }
      ],
      "properties": {
        "order": 18,
        "id": 5,
        "name": "help-circle-header",
        "prevSize": 32
      },
      "setIdx": 1,
      "setId": 1,
      "iconIdx": 5
    },
    {
      "icon": {
        "paths": [
          "M896 640v170.667c0 47.128-38.205 85.333-85.333 85.333v0h-597.333c-47.128 0-85.333-38.205-85.333-85.333v0-170.667",
          "M298.667 426.667l213.333 213.333 213.333-213.333",
          "M512 640v-512"
        ],
        "attrs": [
          {
            "fill": "none",
            "strokeLinejoin": "round",
            "strokeLinecap": "round",
            "strokeMiterlimit": "4",
            "strokeWidth": 85.33333333333333
          },
          {
            "fill": "none",
            "strokeLinejoin": "round",
            "strokeLinecap": "round",
            "strokeMiterlimit": "4",
            "strokeWidth": 85.33333333333333
          },
          {
            "fill": "none",
            "strokeLinejoin": "round",
            "strokeLinecap": "round",
            "strokeMiterlimit": "4",
            "strokeWidth": 85.33333333333333
          }
        ],
        "isMulticolor": false,
        "isMulticolor2": false,
        "tags": [
          "download"
        ],
        "grid": 0
      },
      "attrs": [
        {
          "fill": "none",
          "strokeLinejoin": "round",
          "strokeLinecap": "round",
          "strokeMiterlimit": "4",
          "strokeWidth": 85.33333333333333
        },
        {
          "fill": "none",
          "strokeLinejoin": "round",
          "strokeLinecap": "round",
          "strokeMiterlimit": "4",
          "strokeWidth": 85.33333333333333
        },
        {
          "fill": "none",
          "strokeLinejoin": "round",
          "strokeLinecap": "round",
          "strokeMiterlimit": "4",
          "strokeWidth": 85.33333333333333
        }
      ],
      "properties": {
        "order": 16,
        "id": 6,
        "name": "download",
        "prevSize": 32
      },
      "setIdx": 1,
      "setId": 1,
      "iconIdx": 6
    },
    {
      "icon": {
        "paths": [
          "M682.667 682.667v42.667c0 47.128-38.205 85.333-85.333 85.333v0h-469.333c-47.128 0-85.333-38.205-85.333-85.333v0-426.667c0-47.128 38.205-85.333 85.333-85.333v0h85.333M454.827 213.333h142.507c47.128 0 85.333 38.205 85.333 85.333v0 142.507l42.667 42.667 256-185.173v426.667",
          "M42.667 42.667l938.667 938.667"
        ],
        "attrs": [
          {
            "fill": "none",
            "strokeLinejoin": "round",
            "strokeLinecap": "round",
            "strokeMiterlimit": "4",
            "strokeWidth": 21.333333333333332
          },
          {
            "fill": "none",
            "strokeLinejoin": "round",
            "strokeLinecap": "round",
            "strokeMiterlimit": "4",
            "strokeWidth": 21.333333333333332
          }
        ],
        "isMulticolor": false,
        "isMulticolor2": false,
        "tags": [
          "video-off"
        ],
        "grid": 0
      },
      "attrs": [
        {
          "fill": "none",
          "strokeLinejoin": "round",
          "strokeLinecap": "round",
          "strokeMiterlimit": "4",
          "strokeWidth": 21.333333333333332
        },
        {
          "fill": "none",
          "strokeLinejoin": "round",
          "strokeLinecap": "round",
          "strokeMiterlimit": "4",
          "strokeWidth": 21.333333333333332
        }
      ],
      "properties": {
        "order": 13,
        "id": 7,
        "name": "video-off",
        "prevSize": 32
      },
      "setIdx": 1,
      "setId": 1,
      "iconIdx": 7
    },
    {
      "icon": {
        "paths": [
          "M1072.762 441.585c0-216.937-229.24-392.823-512-392.823s-512 175.887-512 392.823c0 111.513 60.89 211.977 158.163 283.52l-28.297 201.371 228.524-110.089c48.543 11.686 100.043 18.021 153.609 18.021 282.76 0 512-175.887 512-392.823z"
        ],
        "width": 1122,
        "attrs": [
          {
            "fill": "none",
            "stroke": "rgb(255, 255, 255)",
            "strokeLinejoin": "miter",
            "strokeLinecap": "butt",
            "strokeMiterlimit": "4",
            "strokeWidth": 97.52380952380952
          }
        ],
        "isMulticolor": false,
        "isMulticolor2": false,
        "tags": [
          "chat-bubble"
        ],
        "grid": 0
      },
      "attrs": [
        {
          "fill": "none",
          "stroke": "rgb(255, 255, 255)",
          "strokeLinejoin": "miter",
          "strokeLinecap": "butt",
          "strokeMiterlimit": "4",
          "strokeWidth": 97.52380952380952
        }
      ],
      "properties": {
        "order": 6,
        "id": 8,
        "name": "chat-bubble",
        "prevSize": 32
      },
      "setIdx": 1,
      "setId": 1,
      "iconIdx": 8
    },
    {
      "icon": {
        "paths": [
          "M512 1024c282.77 0 512-229.23 512-512s-229.23-512-512-512c-282.77 0-512 229.23-512 512s229.23 512 512 512zM512 930.909c-231.357 0-418.909-187.552-418.909-418.909s187.552-418.909 418.909-418.909c231.357 0 418.909 187.552 418.909 418.909s-187.552 418.909-418.909 418.909z",
          "M618.724 339.451l-279.273 279.273c-18.177 18.177-18.177 47.648 0 65.825s47.648 18.177 65.825 0l279.273-279.273c18.177-18.177 18.177-47.648 0-65.825s-47.648-18.177-65.825 0z",
          "M339.451 405.276l279.273 279.273c18.177 18.177 47.648 18.177 65.825 0s18.177-47.648 0-65.825l-279.273-279.273c-18.177-18.177-47.648-18.177-65.825 0s-18.177 47.648 0 65.825z"
        ],
        "attrs": [
          {},
          {},
          {}
        ],
        "isMulticolor": false,
        "isMulticolor2": false,
        "tags": [
          "x-circle"
        ],
        "grid": 0
      },
      "attrs": [
        {},
        {},
        {}
      ],
      "properties": {
        "order": 24,
        "id": 9,
        "name": "x-circle",
        "prevSize": 32
      },
      "setIdx": 1,
      "setId": 1,
      "iconIdx": 9
    },
    {
      "icon": {
        "paths": [
          "M512 1024c282.77 0 512-229.23 512-512s-229.23-512-512-512c-282.77 0-512 229.23-512 512s229.23 512 512 512zM512 930.909c-231.357 0-418.909-187.552-418.909-418.909s187.552-418.909 418.909-418.909c231.357 0 418.909 187.552 418.909 418.909s-187.552 418.909-418.909 418.909z",
          "M325.818 558.545h372.364c25.706 0 46.545-20.839 46.545-46.545s-20.839-46.545-46.545-46.545h-372.364c-25.706 0-46.545 20.839-46.545 46.545s20.839 46.545 46.545 46.545z"
        ],
        "attrs": [
          {},
          {}
        ],
        "isMulticolor": false,
        "isMulticolor2": false,
        "tags": [
          "minus-circle"
        ],
        "grid": 0
      },
      "attrs": [
        {},
        {}
      ],
      "properties": {
        "order": 23,
        "id": 10,
        "name": "minus-circle",
        "prevSize": 32
      },
      "setIdx": 1,
      "setId": 1,
      "iconIdx": 10
    },
    {
      "icon": {
        "paths": [
          "M512 1024c282.77 0 512-229.23 512-512s-229.23-512-512-512c-282.77 0-512 229.23-512 512s229.23 512 512 512zM512 930.909c-231.357 0-418.909-187.552-418.909-418.909s187.552-418.909 418.909-418.909c231.357 0 418.909 187.552 418.909 418.909s-187.552 418.909-418.909 418.909z",
          "M465.455 325.818v372.364c0 25.706 20.839 46.545 46.545 46.545s46.545-20.839 46.545-46.545v-372.364c0-25.706-20.839-46.545-46.545-46.545s-46.545 20.839-46.545 46.545z",
          "M325.818 558.545h372.364c25.706 0 46.545-20.839 46.545-46.545s-20.839-46.545-46.545-46.545h-372.364c-25.706 0-46.545 20.839-46.545 46.545s20.839 46.545 46.545 46.545z"
        ],
        "attrs": [
          {},
          {},
          {}
        ],
        "isMulticolor": false,
        "isMulticolor2": false,
        "tags": [
          "plus-circle"
        ],
        "grid": 0
      },
      "attrs": [
        {},
        {},
        {}
      ],
      "properties": {
        "order": 22,
        "id": 11,
        "name": "plus-circle",
        "prevSize": 32
      },
      "setIdx": 1,
      "setId": 1,
      "iconIdx": 11
    },
    {
      "icon": {
        "paths": [
          "M896 896h-384c-25.6 0-42.667-17.067-42.667-42.667s17.067-42.667 42.667-42.667h384c25.6 0 42.667 17.067 42.667 42.667s-17.067 42.667-42.667 42.667z",
          "M128 896c-12.8 0-21.333-4.267-29.867-12.8-12.8-8.533-17.067-25.6-12.8-38.4l42.667-170.667c0-8.533 4.267-12.8 12.8-21.333l533.333-533.333c51.2-51.2 136.533-51.2 187.733 0s51.2 136.533 0 187.733l-533.333 533.333c-4.267 4.267-12.8 8.533-21.333 12.8l-170.667 42.667c0 0-4.267 0-8.533 0zM209.067 704l-21.333 89.6 89.6-21.333 524.8-524.8c17.067-17.067 17.067-46.933 0-68.267-17.067-17.067-51.2-17.067-68.267 0v0l-524.8 524.8zM704 149.333v0 0z"
        ],
        "attrs": [
          {},
          {}
        ],
        "isMulticolor": false,
        "isMulticolor2": false,
        "tags": [
          "edit-3"
        ],
        "grid": 0
      },
      "attrs": [
        {},
        {}
      ],
      "properties": {
        "order": 21,
        "id": 12,
        "name": "edit-3",
        "prevSize": 32
      },
      "setIdx": 1,
      "setId": 1,
      "iconIdx": 12
    },
    {
      "icon": {
        "paths": [
          "M396.497 140.497c-8.001 8.002-12.497 18.854-12.497 30.17v42.667h256v-42.667c0-11.316-4.497-22.168-12.497-30.17s-18.854-12.497-30.17-12.497h-170.667c-11.316 0-22.168 4.495-30.17 12.497zM298.667 213.333v-42.667c0-33.948 13.486-66.505 37.49-90.51s56.562-37.49 90.51-37.49h170.667c33.946 0 66.505 13.486 90.509 37.49s37.491 56.562 37.491 90.51v42.667h170.667c23.565 0 42.667 19.103 42.667 42.667s-19.102 42.667-42.667 42.667h-42.667v554.667c0 33.95-13.487 66.505-37.491 90.509s-56.559 37.491-90.509 37.491h-426.667c-33.948 0-66.505-13.487-90.51-37.491s-37.49-56.559-37.49-90.509v-554.667h-42.667c-23.564 0-42.667-19.103-42.667-42.667s19.103-42.667 42.667-42.667h170.667zM256 298.667v554.667c0 11.315 4.495 22.17 12.497 30.17s18.854 12.497 30.17 12.497h426.667c11.315 0 22.17-4.497 30.17-12.497s12.497-18.854 12.497-30.17v-554.667h-512z"
        ],
        "attrs": [
          {}
        ],
        "isMulticolor": false,
        "isMulticolor2": false,
        "tags": [
          "trash"
        ],
        "grid": 0
      },
      "attrs": [
        {}
      ],
      "properties": {
        "order": 20,
        "id": 13,
        "name": "trash",
        "prevSize": 32
      },
      "setIdx": 1,
      "setId": 1,
      "iconIdx": 13
    },
    {
      "icon": {
        "paths": [
          "M554.667 128c0-23.564-19.102-42.667-42.667-42.667s-42.667 19.103-42.667 42.667v408.994l-140.497-140.497c-16.663-16.662-43.677-16.662-60.34 0s-16.662 43.678 0 60.34l213.304 213.303c0.102 0.102 0.205 0.205 0.311 0.307 4.023 3.955 8.64 6.946 13.555 8.981 4.996 2.074 10.466 3.221 16.205 3.238 0.043 0 0.085 0 0.128 0s0.085 0 0.128 0c11.588-0.034 22.093-4.689 29.76-12.22 0.107-0.102 0.209-0.205 0.311-0.307l213.303-213.303c16.661-16.661 16.661-43.677 0-60.34s-43.678-16.662-60.339 0l-140.497 140.497v-408.994zM128 597.333c23.564 0 42.667 19.102 42.667 42.667v170.667c0 11.315 4.495 22.17 12.497 30.17s18.854 12.497 30.17 12.497h597.333c11.315 0 22.17-4.497 30.17-12.497s12.497-18.854 12.497-30.17v-170.667c0-23.565 19.102-42.667 42.667-42.667s42.667 19.102 42.667 42.667v170.667c0 33.95-13.487 66.505-37.491 90.509s-56.559 37.491-90.509 37.491h-597.333c-33.948 0-66.505-13.487-90.51-37.491s-37.49-56.559-37.49-90.509v-170.667c0-23.565 19.103-42.667 42.667-42.667z"
        ],
        "attrs": [
          {}
        ],
        "isMulticolor": false,
        "isMulticolor2": false,
        "tags": [
          "download"
        ],
        "grid": 0
      },
      "attrs": [
        {}
      ],
      "properties": {
        "order": 19,
        "id": 14,
        "name": "download1",
        "prevSize": 32
      },
      "setIdx": 1,
      "setId": 1,
      "iconIdx": 14
    },
    {
      "icon": {
        "paths": [
          "M140.497 140.497c8.002-8.001 18.854-12.497 30.17-12.497h384c11.315 0 22.17 4.495 30.17 12.497s12.497 18.854 12.497 30.17v42.667c0 23.564 19.102 42.667 42.667 42.667s42.667-19.103 42.667-42.667v-42.667c0-33.948-13.487-66.505-37.491-90.51s-56.563-37.49-90.509-37.49h-384c-33.948 0-66.505 13.486-90.51 37.49s-37.49 56.562-37.49 90.51v384c0 33.946 13.486 66.505 37.49 90.509s56.562 37.491 90.51 37.491h42.667c23.564 0 42.667-19.102 42.667-42.667s-19.103-42.667-42.667-42.667h-42.667c-11.316 0-22.168-4.497-30.17-12.497s-12.497-18.854-12.497-30.17v-384c0-11.316 4.495-22.168 12.497-30.17zM426.667 469.333c0-23.565 19.102-42.667 42.667-42.667h384c23.565 0 42.667 19.102 42.667 42.667v384c0 23.565-19.102 42.667-42.667 42.667h-384c-23.565 0-42.667-19.102-42.667-42.667v-384zM469.333 341.333c-70.692 0-128 57.308-128 128v384c0 70.694 57.308 128 128 128h384c70.694 0 128-57.306 128-128v-384c0-70.692-57.306-128-128-128h-384z"
        ],
        "attrs": [
          {}
        ],
        "isMulticolor": false,
        "isMulticolor2": false,
        "tags": [
          "copy"
        ],
        "grid": 0
      },
      "attrs": [
        {}
      ],
      "properties": {
        "order": 18,
        "id": 15,
        "name": "copy",
        "prevSize": 32
      },
      "setIdx": 1,
      "setId": 1,
      "iconIdx": 15
    },
    {
      "icon": {
        "paths": [
          "M512 1024c-282.77 0-512-229.23-512-512s229.23-512 512-512c282.77 0 512 229.23 512 512s-229.23 512-512 512zM512 930.909c231.357 0 418.909-187.552 418.909-418.909s-187.552-418.909-418.909-418.909c-231.357 0-418.909 187.552-418.909 418.909s187.552 418.909 418.909 418.909z",
          "M558.545 483.233l160.452 80.226c22.992 11.496 32.312 39.455 20.816 62.447s-39.455 32.312-62.447 20.816l-186.182-93.091c-15.769-7.884-25.73-24.001-25.73-41.632v-279.273c0-25.706 20.839-46.545 46.545-46.545s46.545 20.839 46.545 46.545v250.506z"
        ],
        "attrs": [
          {},
          {}
        ],
        "isMulticolor": false,
        "isMulticolor2": false,
        "tags": [
          "clock"
        ],
        "grid": 0
      },
      "attrs": [
        {},
        {}
      ],
      "properties": {
        "order": 17,
        "id": 16,
        "name": "clock",
        "prevSize": 32
      },
      "setIdx": 1,
      "setId": 1,
      "iconIdx": 16
    },
    {
      "icon": {
        "paths": [
          "M674.588 266.667l-66.052-66.052c-12.497-12.497-12.497-32.758 0-45.255s32.758-12.497 45.255 0l120.68 120.68c12.497 12.497 12.497 32.758 0 45.255l-120.68 120.68c-12.497 12.497-32.758 12.497-45.255 0s-12.497-32.758 0-45.255l66.052-66.052h-333.255c-17.673 0-32-14.327-32-32s14.327-32 32-32h333.255z",
          "M349.412 757.333l66.052 66.052c12.497 12.497 12.497 32.758 0 45.255s-32.758 12.497-45.255 0l-120.68-120.68c-12.497-12.497-12.497-32.758 0-45.255l120.68-120.68c12.497-12.497 32.758-12.497 45.255 0s12.497 32.758 0 45.255l-66.052 66.052h333.255c17.673 0 32 14.327 32 32s-14.327 32-32 32h-333.255z"
        ],
        "attrs": [
          {},
          {}
        ],
        "isMulticolor": false,
        "isMulticolor2": false,
        "tags": [
          "icExchange"
        ],
        "grid": 0
      },
      "attrs": [
        {},
        {}
      ],
      "properties": {
        "order": 16,
        "id": 17,
        "name": "icExchange",
        "prevSize": 32
      },
      "setIdx": 1,
      "setId": 1,
      "iconIdx": 17
    },
    {
      "icon": {
        "paths": [
          "M512 744.727c-25.706 0-46.545-20.839-46.545-46.545s20.839-46.545 46.545-46.545c25.706 0 46.545 20.839 46.545 46.545s-20.839 46.545-46.545 46.545z",
          "M512 1024c-282.77 0-512-229.23-512-512s229.23-512 512-512c282.77 0 512 229.23 512 512s-229.23 512-512 512zM512 930.909c231.357 0 418.909-187.552 418.909-418.909s-187.552-418.909-418.909-418.909c-231.357 0-418.909 187.552-418.909 418.909s187.552 418.909 418.909 418.909z",
          "M465.455 325.818c0-25.706 20.839-46.545 46.545-46.545s46.545 20.839 46.545 46.545v186.182c0 25.706-20.839 46.545-46.545 46.545s-46.545-20.839-46.545-46.545v-186.182z",
          "M479.087 731.094c-18.177-18.177-18.177-47.648 0-65.825s47.648-18.177 65.825 0c18.177 18.177 18.177 47.648 0 65.825s-47.648 18.177-65.825 0z"
        ],
        "attrs": [
          {},
          {},
          {},
          {}
        ],
        "isMulticolor": false,
        "isMulticolor2": false,
        "tags": [
          "alert-circle"
        ],
        "grid": 0
      },
      "attrs": [
        {},
        {},
        {},
        {}
      ],
      "properties": {
        "order": 15,
        "id": 18,
        "name": "alert-circle",
        "prevSize": 32
      },
      "setIdx": 1,
      "setId": 1,
      "iconIdx": 18
    },
    {
      "icon": {
        "paths": [
          "M896 309.019l-677.49 677.49c-49.987 49.987-131.032 49.987-181.019 0s-49.987-131.032 0-181.019l768-768c49.987-49.987 131.032-49.987 181.019 0l768 768c49.987 49.987 49.987 131.032 0 181.019s-131.032 49.987-181.019 0l-677.49-677.49z"
        ],
        "width": 1792,
        "attrs": [
          {}
        ],
        "isMulticolor": false,
        "isMulticolor2": false,
        "tags": [
          "chevron-up"
        ],
        "grid": 0
      },
      "attrs": [
        {}
      ],
      "properties": {
        "order": 14,
        "id": 19,
        "name": "chevron-up",
        "prevSize": 32
      },
      "setIdx": 1,
      "setId": 1,
      "iconIdx": 19
    },
    {
      "icon": {
        "paths": [
          "M896 714.981l677.49-677.49c49.987-49.987 131.032-49.987 181.019 0s49.987 131.032 0 181.019l-768 768c-49.987 49.987-131.032 49.987-181.019 0l-768-768c-49.987-49.987-49.987-131.032 0-181.019s131.032-49.987 181.019 0l677.49 677.49z"
        ],
        "width": 1792,
        "attrs": [
          {}
        ],
        "isMulticolor": false,
        "isMulticolor2": false,
        "tags": [
          "chevron-down"
        ],
        "grid": 0
      },
      "attrs": [
        {}
      ],
      "properties": {
        "order": 13,
        "id": 20,
        "name": "chevron-down",
        "prevSize": 32
      },
      "setIdx": 1,
      "setId": 1,
      "iconIdx": 20
    },
    {
      "icon": {
        "paths": [
          "M576 960c0 35.346-28.654 64-64 64s-64-28.654-64-64v-896c0-35.346 28.654-64 64-64s64 28.654 64 64v896z",
          "M512 154.51l-402.745 402.745c-24.994 24.994-65.516 24.994-90.51 0s-24.994-65.516 0-90.51l448-448c24.994-24.994 65.516-24.994 90.51 0l448 448c24.994 24.994 24.994 65.516 0 90.51s-65.516 24.994-90.51 0l-402.745-402.745z"
        ],
        "attrs": [
          {},
          {}
        ],
        "isMulticolor": false,
        "isMulticolor2": false,
        "tags": [
          "arrow-up"
        ],
        "grid": 0
      },
      "attrs": [
        {},
        {}
      ],
      "properties": {
        "order": 12,
        "id": 21,
        "name": "arrow-up",
        "prevSize": 32
      },
      "setIdx": 1,
      "setId": 1,
      "iconIdx": 21
    },
    {
      "icon": {
        "paths": [
          "M448 64c0-35.346 28.654-64 64-64s64 28.654 64 64v896c0 35.346-28.654 64-64 64s-64-28.654-64-64v-896z",
          "M914.745 466.745c24.994-24.994 65.516-24.994 90.51 0s24.994 65.516 0 90.51l-448 448c-24.994 24.994-65.516 24.994-90.51 0l-448-448c-24.994-24.994-24.994-65.516 0-90.51s65.516-24.994 90.51 0l402.745 402.745 402.745-402.745z"
        ],
        "attrs": [
          {},
          {}
        ],
        "isMulticolor": false,
        "isMulticolor2": false,
        "tags": [
          "arrow-down"
        ],
        "grid": 0
      },
      "attrs": [
        {},
        {}
      ],
      "properties": {
        "order": 11,
        "id": 22,
        "name": "arrow-down",
        "prevSize": 32
      },
      "setIdx": 1,
      "setId": 1,
      "iconIdx": 22
    },
    {
      "icon": {
        "paths": [
          "M512 1024c-282.77 0-512-229.23-512-512s229.23-512 512-512c282.77 0 512 229.23 512 512s-229.23 512-512 512zM512 930.909c231.357 0 418.909-187.552 418.909-418.909s-187.552-418.909-418.909-418.909c-231.357 0-418.909 187.552-418.909 418.909s187.552 418.909 418.909 418.909z",
          "M481.904 810.521c-23.484-10.456-34.045-37.969-23.59-61.453s37.969-34.045 61.453-23.59c23.484 10.456 34.045 37.969 23.59 61.453s-37.969 34.045-61.453 23.59z",
          "M420.461 387.809c-8.53 24.25-35.104 36.993-59.354 28.462s-36.993-35.104-28.462-59.354c30.127-85.641 117.629-137.067 207.107-121.719s154.841 92.994 154.706 183.71c0 59.565-35.29 106.619-90.545 143.455-30.204 20.136-59.878 33.325-80.918 40.338-24.387 8.129-50.747-5.051-58.876-29.438s5.051-50.747 29.438-58.876c3.019-1.006 9.278-3.391 17.633-7.104 14.108-6.27 28.199-13.785 41.085-22.376 32.018-21.345 49.092-44.11 49.092-66.068 0.068-45.393-32.614-84.216-77.353-91.89s-88.49 18.039-103.554 60.859z"
        ],
        "attrs": [
          {},
          {},
          {}
        ],
        "isMulticolor": false,
        "isMulticolor2": false,
        "tags": [
          "icon-help-circle-header"
        ],
        "grid": 0
      },
      "attrs": [
        {},
        {},
        {}
      ],
      "properties": {
        "order": 10,
        "id": 23,
        "name": "help-circle",
        "prevSize": 32
      },
      "setIdx": 1,
      "setId": 1,
      "iconIdx": 23
    },
    {
      "icon": {
        "paths": [
          "M102.4 1024c-56.554 0-102.4-45.846-102.4-102.4s45.846-102.4 102.4-102.4c56.554 0 102.4 45.846 102.4 102.4s-45.846 102.4-102.4 102.4zM0 102.4c0-56.554 45.846-102.4 102.4-102.4s102.4 45.846 102.4 102.4v409.6c0 56.554-45.846 102.4-102.4 102.4s-102.4-45.846-102.4-102.4v-409.6z"
        ],
        "width": 205,
        "attrs": [
          {}
        ],
        "isMulticolor": false,
        "isMulticolor2": false,
        "tags": [
          "missing"
        ],
        "grid": 0
      },
      "attrs": [
        {}
      ],
      "properties": {
        "order": 9,
        "id": 24,
        "name": "missing",
        "prevSize": 32
      },
      "setIdx": 1,
      "setId": 1,
      "iconIdx": 24
    },
    {
      "icon": {
        "paths": [
          "M557.795 830.011c50.583 25.292 71.086 86.801 45.795 137.384s-86.801 71.086-137.384 45.795l-409.6-204.8c-34.691-17.346-56.605-52.803-56.605-91.589v-614.4c0-56.554 45.846-102.4 102.4-102.4s102.4 45.846 102.4 102.4v551.113l352.995 176.497z"
        ],
        "width": 614,
        "attrs": [
          {}
        ],
        "isMulticolor": false,
        "isMulticolor2": false,
        "tags": [
          "review"
        ],
        "grid": 0
      },
      "attrs": [
        {}
      ],
      "properties": {
        "order": 8,
        "id": 25,
        "name": "review",
        "prevSize": 32
      },
      "setIdx": 1,
      "setId": 1,
      "iconIdx": 25
    },
    {
      "icon": {
        "paths": [
          "M54.782 248.41c-50.852-49.107-52.266-130.14-3.159-180.992s130.14-52.266 180.992-3.159l736.604 711.33c50.852 49.107 52.266 130.14 3.159 180.992s-130.14 52.266-180.992 3.159l-736.604-711.33z",
          "M248.41 969.218c-49.107 50.852-130.14 52.266-180.992 3.159s-52.266-130.14-3.159-180.992l711.33-736.604c49.107-50.852 130.14-52.266 180.992-3.159s52.266 130.14 3.159 180.992l-711.33 736.604z"
        ],
        "attrs": [
          {},
          {}
        ],
        "isMulticolor": false,
        "isMulticolor2": false,
        "tags": [
          "rejected"
        ],
        "grid": 0
      },
      "attrs": [
        {},
        {}
      ],
      "properties": {
        "order": 7,
        "id": 26,
        "name": "rejected",
        "prevSize": 32
      },
      "setIdx": 1,
      "setId": 1,
      "iconIdx": 26
    },
    {
      "icon": {
        "paths": [
          "M460.8 649.474l478.657-522.172c42.801-46.692 115.349-49.846 162.040-7.045s49.846 115.349 7.045 162.040l-563.2 614.4c-45.455 49.587-123.63 49.587-169.085 0l-256-279.273c-42.801-46.692-39.646-119.24 7.045-162.040s119.24-39.646 162.040 7.045l171.457 187.044z"
        ],
        "width": 1229,
        "attrs": [
          {}
        ],
        "isMulticolor": false,
        "isMulticolor2": false,
        "tags": [
          "approved"
        ],
        "grid": 0
      },
      "attrs": [
        {}
      ],
      "properties": {
        "order": 6,
        "id": 27,
        "name": "approved",
        "prevSize": 32
      },
      "setIdx": 1,
      "setId": 1,
      "iconIdx": 27
    },
    {
      "icon": {
        "paths": [
          "M548.907 874.591c11.824-20.383 37.933-27.322 58.316-15.498s27.322 37.933 15.498 58.316c-22.899 39.475-65.084 63.773-110.72 63.773s-87.821-24.298-110.72-63.773c-11.824-20.383-4.885-46.492 15.498-58.316s46.492-4.885 58.316 15.498c7.633 13.158 21.695 21.258 36.907 21.258s29.274-8.099 36.907-21.258z",
          "M836.039 543.424c6.209 22.731-7.184 46.192-29.916 52.402s-46.192-7.184-52.402-29.916c-20.042-73.371-29.598-149.209-28.383-225.258 0.376-23.561 19.782-42.356 43.343-41.98s42.356 19.782 41.98 43.343c-1.087 67.997 7.457 135.806 25.377 201.409z",
          "M725.333 682.667c23.564 0 42.667 19.103 42.667 42.667s-19.103 42.667-42.667 42.667h-597.333c-42.215 0-58.792-54.751-23.667-78.167 1.403-0.936 5.947-4.722 12.693-11.843 12.49-13.184 25.304-30.696 37.517-53.087 36.477-66.875 58.79-159.846 58.79-283.469-0.069-29.458 4.309-58.758 12.986-86.909 6.941-22.519 30.823-35.146 53.342-28.205s35.146 30.823 28.205 53.342c-6.148 19.944-9.249 40.701-9.2 61.672 0 137.611-25.687 244.639-69.21 324.431-3.222 5.906-6.462 11.538-9.707 16.902h505.584z",
          "M810.667 341.397c-0.035 23.564-19.166 42.638-42.73 42.603s-42.638-19.166-42.603-42.73c0.117-78.747-43.157-151.154-112.565-188.351s-153.663-33.132-219.169 10.573c-19.602 13.078-46.094 7.79-59.172-11.812s-7.79-46.094 11.812-59.172c91.708-61.187 209.665-66.877 306.836-14.802s157.754 153.445 157.591 263.691z",
          "M12.497 72.837c-16.662-16.662-16.662-43.677 0-60.34s43.677-16.662 60.34 0l938.667 938.667c16.662 16.662 16.662 43.677 0 60.34s-43.677 16.662-60.34 0l-938.667-938.667z"
        ],
        "attrs": [
          {},
          {},
          {},
          {},
          {}
        ],
        "isMulticolor": false,
        "isMulticolor2": false,
        "tags": [
          "bell-off"
        ],
        "grid": 0
      },
      "attrs": [
        {},
        {},
        {},
        {},
        {}
      ],
      "properties": {
        "order": 5,
        "id": 28,
        "name": "bell-off",
        "prevSize": 32
      },
      "setIdx": 1,
      "setId": 1,
      "iconIdx": 28
    },
    {
      "icon": {
        "paths": [
          "M698.182 325.818c0-128.532-104.196-232.727-232.727-232.727s-232.727 104.196-232.727 232.727c0 150.121-28.022 266.879-75.502 353.925-3.515 6.443-7.050 12.587-10.59 18.439h637.638c-3.54-5.851-7.075-11.995-10.59-18.439-47.48-87.046-75.502-203.804-75.502-353.925zM791.273 325.818c0 134.97 24.342 236.394 64.135 309.348 13.324 24.427 27.302 43.531 40.928 57.913 7.36 7.768 12.316 11.899 13.847 12.92 38.318 25.545 20.234 85.274-25.819 85.274h-837.818c-46.052 0-64.137-59.728-25.819-85.274 1.531-1.021 6.488-5.151 13.847-12.92 13.626-14.383 27.604-33.486 40.928-57.913 39.793-72.954 64.135-174.378 64.135-309.348 0-179.944 145.874-325.818 325.818-325.818s325.818 145.874 325.818 325.818z",
          "M505.716 907.554c12.899-22.236 41.381-29.805 63.617-16.907s29.805 41.381 16.907 63.617c-24.981 43.064-71 69.571-120.785 69.571s-95.805-26.507-120.785-69.571c-12.899-22.236-5.329-50.718 16.907-63.617s50.718-5.329 63.617 16.907c8.327 14.355 23.667 23.19 40.262 23.19s31.935-8.836 40.262-23.19z"
        ],
        "width": 931,
        "attrs": [
          {},
          {}
        ],
        "isMulticolor": false,
        "isMulticolor2": false,
        "tags": [
          "bell"
        ],
        "grid": 0
      },
      "attrs": [
        {},
        {}
      ],
      "properties": {
        "order": 4,
        "id": 29,
        "name": "bell",
        "prevSize": 32
      },
      "setIdx": 1,
      "setId": 1,
      "iconIdx": 29
    },
    {
      "icon": {
        "paths": [
          "M146.456 552.247c32.698 50.629 71.329 101.293 115.491 148.399 123.543 131.779 264.548 209.575 420.72 209.575s297.177-77.796 420.72-209.575c44.162-47.106 82.793-97.77 115.491-148.399 9.281-14.37 17.512-27.867 24.673-40.247-7.161-12.381-15.392-25.877-24.673-40.247-32.698-50.629-71.329-101.293-115.491-148.399-123.543-131.779-264.548-209.575-420.72-209.575s-297.177 77.796-420.72 209.575c-44.162 47.106-82.793 97.77-115.491 148.399-9.281 14.37-17.512 27.867-24.673 40.247 7.161 12.381 15.392 25.877 24.673 40.247zM6.006 486.559c7.997-15.994 23.006-42.676 44.872-76.533 36.191-56.037 78.893-112.040 128.064-164.489 143.124-152.665 311.452-245.536 503.725-245.536s360.601 92.871 503.725 245.536c49.171 52.449 91.873 108.452 128.064 164.489 21.866 33.857 36.875 60.54 44.872 76.533 8.008 16.016 8.008 34.867 0 50.883-7.997 15.994-23.006 42.676-44.872 76.533-36.191 56.037-78.893 112.040-128.064 164.489-143.124 152.665-311.452 245.536-503.725 245.536s-360.601-92.871-503.725-245.536c-49.171-52.449-91.873-108.452-128.064-164.489-21.866-33.857-36.875-60.54-44.872-76.533-8.008-16.016-8.008-34.867 0-50.883z",
          "M682.667 739.556c-125.675 0-227.556-101.88-227.556-227.556s101.88-227.556 227.556-227.556c125.675 0 227.556 101.88 227.556 227.556s-101.88 227.556-227.556 227.556zM682.667 625.778c62.838 0 113.778-50.94 113.778-113.778s-50.94-113.778-113.778-113.778c-62.838 0-113.778 50.94-113.778 113.778s50.94 113.778 113.778 113.778z"
        ],
        "width": 1365,
        "attrs": [
          {},
          {}
        ],
        "isMulticolor": false,
        "isMulticolor2": false,
        "tags": [
          "eye"
        ],
        "grid": 0
      },
      "attrs": [
        {},
        {}
      ],
      "properties": {
        "order": 2,
        "id": 30,
        "name": "eye",
        "prevSize": 32
      },
      "setIdx": 1,
      "setId": 1,
      "iconIdx": 30
    },
    {
      "icon": {
        "paths": [
          "M109.842 542.186c24.524 37.972 53.497 75.97 86.619 111.3 92.657 98.834 198.411 157.181 314.842 157.187 82.589-1.35 162.58-29.091 228.272-79.165 18.741-14.285 45.513-10.673 59.798 8.067s10.673 45.513-8.067 59.798c-80.178 61.116-177.807 94.974-279.305 96.627-144.205 0-270.451-69.653-377.794-184.152-36.878-39.337-68.905-81.339-96.048-123.367-16.4-25.393-27.656-45.405-33.654-57.4-6.2-12.4-5.989-27.039 0.566-39.255 55.949-104.267 133.549-195.362 227.595-267.177 18.728-14.301 45.504-10.712 59.805 8.016s10.712 45.504-8.016 59.805c-78.294 59.787-143.885 134.469-193.039 219.665 5.352 9.248 11.499 19.325 18.426 30.050zM914.158 481.814c-24.524-37.972-53.497-75.97-86.619-111.3-92.657-98.834-198.411-157.181-315.64-157.182-26.855-0.063-53.627 2.996-79.775 9.117-22.944 5.371-45.897-8.875-51.268-31.819s8.875-45.897 31.819-51.268c32.589-7.628 65.955-11.441 99.324-11.363 144.205 0 270.451 69.653 377.794 184.152 36.878 39.337 68.905 81.339 96.048 123.367 16.4 25.393 27.656 45.405 33.654 57.4 6.189 12.378 5.99 26.99-0.534 39.195-27.3 51.072-59.857 99.154-97.142 143.464-15.172 18.030-42.087 20.348-60.117 5.176s-20.348-42.087-5.176-60.117c28.547-33.926 54.005-70.315 76.081-108.732-5.358-9.259-11.512-19.349-18.449-30.089zM571.238 573.367c16.064-17.24 43.062-18.193 60.302-2.129s18.193 43.062 2.129 60.302c-42.546 45.66-106.622 64.455-167.092 49.012s-107.687-62.66-123.13-123.13c-15.443-60.469 3.352-124.545 49.012-167.092 17.24-16.064 44.238-15.111 60.302 2.129s15.111 44.238-2.129 60.302c-22.83 21.273-32.227 53.311-24.506 83.546s31.33 53.843 61.565 61.565c30.235 7.721 62.273-1.676 83.546-24.506zM12.497 72.837c-16.662-16.662-16.662-43.677 0-60.34s43.677-16.662 60.34 0l938.667 938.667c16.662 16.662 16.662 43.677 0 60.34s-43.677 16.662-60.34 0l-938.667-938.667z"
        ],
        "attrs": [
          {}
        ],
        "isMulticolor": false,
        "isMulticolor2": false,
        "tags": [
          "adsd"
        ],
        "grid": 0
      },
      "attrs": [
        {}
      ],
      "properties": {
        "order": 3,
        "id": 31,
        "name": "adsd",
        "prevSize": 32
      },
      "setIdx": 1,
      "setId": 1,
      "iconIdx": 31
    },
    {
      "icon": {
        "paths": [
          "M917.806 229.076c-22.212-30.292-53.174-65.7-87.178-99.704s-69.412-64.964-99.704-87.178c-51.574-37.82-76.592-42.194-90.924-42.194h-496c-44.112 0-80 35.888-80 80v864c0 44.112 35.888 80 80 80h736c44.112 0 80-35.888 80-80v-624c0-14.332-4.372-39.35-42.194-90.924zM785.374 174.626c30.7 30.7 54.8 58.398 72.58 81.374h-153.954v-153.946c22.984 17.78 50.678 41.878 81.374 72.572zM896 944c0 8.672-7.328 16-16 16h-736c-8.672 0-16-7.328-16-16v-864c0-8.672 7.328-16 16-16 0 0 495.956-0.002 496 0v224c0 17.672 14.326 32 32 32h224v624z"
        ],
        "attrs": [],
        "isMulticolor": false,
        "isMulticolor2": false,
        "tags": [
          "file-empty",
          "file",
          "document",
          "paper",
          "page",
          "new",
          "empty",
          "blank"
        ],
        "defaultCode": 59684,
        "grid": 16
      },
      "attrs": [],
      "properties": {
        "ligatures": "file-empty, file3",
        "name": "file-empty",
        "order": 3,
        "id": 0,
        "prevSize": 32
      },
      "setIdx": 2,
      "setId": 0,
      "iconIdx": 0
    },
    {
      "icon": {
        "paths": [
          "M384 832h640v128h-640zM384 448h640v128h-640zM384 64h640v128h-640zM192 0v256h-64v-192h-64v-64zM128 526v50h128v64h-192v-146l128-60v-50h-128v-64h192v146zM256 704v320h-192v-64h128v-64h-128v-64h128v-64h-128v-64z"
        ],
        "attrs": [],
        "isMulticolor": false,
        "isMulticolor2": false,
        "tags": [
          "list-ol",
          "options"
        ],
        "defaultCode": 59833,
        "grid": 16
      },
      "attrs": [],
      "properties": {
        "ligatures": "list-ol, options",
        "name": "list-ol",
        "order": 4,
        "id": 1,
        "prevSize": 32,
        "code": 59833
      },
      "setIdx": 2,
      "setId": 0,
      "iconIdx": 1
    },
    {
      "icon": {
        "paths": [
          "M384 64h640v128h-640v-128zM384 448h640v128h-640v-128zM384 832h640v128h-640v-128zM0 128c0-70.692 57.308-128 128-128s128 57.308 128 128c0 70.692-57.308 128-128 128s-128-57.308-128-128zM0 512c0-70.692 57.308-128 128-128s128 57.308 128 128c0 70.692-57.308 128-128 128s-128-57.308-128-128zM0 896c0-70.692 57.308-128 128-128s128 57.308 128 128c0 70.692-57.308 128-128 128s-128-57.308-128-128z"
        ],
        "attrs": [],
        "isMulticolor": false,
        "isMulticolor2": false,
        "tags": [
          "list",
          "todo",
          "bullet",
          "menu",
          "options"
        ],
        "defaultCode": 59835,
        "grid": 16
      },
      "attrs": [],
      "properties": {
        "ligatures": "list-ul, todo2",
        "name": "list-ul",
        "order": 5,
        "id": 2,
        "prevSize": 32,
        "code": 59835
      },
      "setIdx": 2,
      "setId": 0,
      "iconIdx": 2
    }
  ],
  "height": 1024,
  "preferences": {
    "showGlyphs": true,
    "showCodes": true,
    "showQuickUse": true,
    "showQuickUse2": true,
    "showSVGs": true,
    "fontPref": {
      "prefix": "icon-",
      "metadata": {
        "fontFamily": "icomoon"
      },
      "metrics": {
        "emSize": 1024,
        "baseline": 6.25,
        "whitespace": 50
      },
      "embed": false
    },
    "imagePref": {
      "prefix": "icon-",
      "png": true,
      "useClassSelector": true,
      "color": 0,
      "bgColor": 16777215,
      "name": "icomoon",
      "classSelector": ".icon",
      "autoHost": false
    },
    "historySize": 50,
    "showLiga": false,
    "quickUsageToken": {
      "HULU": "MDc0MmFjNjc2NDU3MzFjYjM3YzVlODdlOWNlY2JhYTgjMSMxNTU0NDQ3NzUxIyMj"
    }
  }
}