<svg xmlns="http://www.w3.org/2000/svg" width="225" height="108" viewBox="0 0 225 108">
    <g fill="none" fill-rule="nonzero">
        <g transform="translate(1 1)">
            <circle cx="36" cy="36" r="36" stroke="#FFF" stroke-width="2" opacity=".7"/>
            <circle cx="36" cy="36" r="28" stroke="#FFF" stroke-width="2" opacity=".7"/>
            <path fill="#FFF" d="M36.583 35.457c-2.727-.706-3.604-1.437-3.604-2.574 0-1.305 1.213-2.214 3.243-2.214 2.138 0 2.931 1.017 3.003 2.513h2.655c-.084-2.059-1.345-3.95-3.856-4.56V27a1 1 0 0 0-1-1H35.42a1 1 0 0 0-1 1v1.586c-2.33.502-4.204 2.01-4.204 4.321 0 2.765 2.295 4.142 5.646 4.944 3.003.718 3.603 1.772 3.603 2.885 0 .826-.588 2.143-3.243 2.143-2.474 0-3.447-1.102-3.58-2.514H30c.144 2.621 2.114 4.094 4.42 4.585v1.597a1 1 0 0 0 1 1h1.604a1 1 0 0 0 1-1v-1.574c2.342-.442 4.204-1.795 4.204-4.25 0-3.399-2.919-4.56-5.645-5.266z"/>
            <path fill="#EDF0F2" d="M95.446 53.143h-3.28v3.268h3.28z" opacity=".5"/>
            <path fill="#FFF" d="M95.446 59.679h-3.28v3.267h3.28zM102.004 53.143h-3.28v3.268h3.28zM102.004 59.679h-3.28v3.267h3.28zM108.562 53.143h-3.279v3.268h3.28z"/>
            <path fill="#EDF0F2" d="M108.562 59.679h-3.279v3.267h3.28z" opacity=".5"/>
            <path fill="#FFF" d="M35.987 79.559l63.99-1.117.036 2-63.99 1.116z" opacity=".5"/>
            <path fill="#FFF" d="M100 85a5 5 0 1 0 0-10 5 5 0 0 0 0 10z"/>
            <circle cx="35" cy="80" r="5" fill="#FFF"/>
            <path fill="#FFF" d="M119.908 95.097l-9.374-10a.299.299 0 0 0-.34-.072.334.334 0 0 0-.194.308V100c0 .14.083.267.208.314a.3.3 0 0 0 .346-.103l2.497-3.254 1.665 3.85A.312.312 0 0 0 115 101a.29.29 0 0 0 .123-.027l2.187-1a.324.324 0 0 0 .17-.187.354.354 0 0 0-.009-.26l-1.67-3.86h3.886c.126 0 .24-.08.289-.205a.35.35 0 0 0-.068-.364z"/>
        </g>
        <path stroke="#FFF" stroke-width="2" d="M88 48h26v21H88z"/>
    </g>
</svg>
