<svg xmlns="http://www.w3.org/2000/svg" xmlns:xlink="http://www.w3.org/1999/xlink" width="665" height="536" viewBox="0 0 665 536">
    <defs>
        <linearGradient id="a" x1="0%" y1="50%" y2="50%">
            <stop offset="0%" stop-color="#3EB5A9"/>
            <stop offset="100%" stop-color="#7FD386" stop-opacity=".75"/>
        </linearGradient>
        <path id="b" d="M5.817.578a4.895 4.895 0 0 0-4.887 4.9V79.59a4.892 4.892 0 0 0 4.887 4.897h149.838c2.694 0 4.882-2.192 4.882-4.897V5.478c0-2.705-2.188-4.9-4.882-4.9H5.817z"/>
        <filter id="c" width="115%" height="128.6%" x="-7.5%" y="-14.3%" filterUnits="objectBoundingBox">
            <feOffset in="SourceAlpha" result="shadowOffsetOuter1"/>
            <feGaussianBlur in="shadowOffsetOuter1" result="shadowBlurOuter1" stdDeviation="4"/>
            <feColorMatrix in="shadowBlurOuter1" values="0 0 0 0 0.929411765 0 0 0 0 0.941176471 0 0 0 0 0.949019608 0 0 0 1 0"/>
        </filter>
        <path id="e" d="M6.843 86.58c-3.661 0-6.627-2.958-6.627-6.606V7.398C.216 3.75 3.182.792 6.843.792h165.034c3.658 0 6.624 2.958 6.624 6.606v72.576c0 3.648-2.966 6.606-6.624 6.606H6.843z"/>
        <filter id="d" width="113.5%" height="128%" x="-6.7%" y="-14%" filterUnits="objectBoundingBox">
            <feOffset in="SourceAlpha" result="shadowOffsetOuter1"/>
            <feGaussianBlur in="shadowOffsetOuter1" result="shadowBlurOuter1" stdDeviation="4"/>
            <feColorMatrix in="shadowBlurOuter1" values="0 0 0 0 0.929411765 0 0 0 0 0.941176471 0 0 0 0 0.949019608 0 0 0 1 0"/>
        </filter>
        <path id="g" d="M0 97.907h181.807V0H0z"/>
        <filter id="f" width="113.2%" height="124.5%" x="-6.6%" y="-12.3%" filterUnits="objectBoundingBox">
            <feOffset in="SourceAlpha" result="shadowOffsetOuter1"/>
            <feGaussianBlur in="shadowOffsetOuter1" result="shadowBlurOuter1" stdDeviation="4"/>
            <feColorMatrix in="shadowBlurOuter1" values="0 0 0 0 0.929411765 0 0 0 0 0.941176471 0 0 0 0 0.949019608 0 0 0 1 0"/>
        </filter>
        <path id="h" d="M128.634 14.799c-4.91-.82-8.907-4.492-13.95-4.825-6.549-.435-10.985 4.852-15.663 8.481-6.565 5.095-14.894 11.276-23.356 12.553-5.455.826-9.862-1.593-13.254-5.665-4.394-5.274-6.637-10.067-14.091-11.083-5.755-.783-12.342.662-16.968 4.237-5.71 4.41-9.12 11.661-15.674 14.705-2.325 1.08-4.937 1.515-7.494 1.31-1.673-.136-5.952-2.39-7.432-1.105-1.087.944-.342 5.053-.342 6.498h159.38c-.244 0 .382-35.542-.084-39.117-5.488 2.861-9.67 8.333-15.492 11.19-4.68 2.295-10.343 3.695-15.58 2.82z"/>
        <path id="k" d="M.771 100.294h74.763V.812H.771z"/>
        <filter id="j" width="132.1%" height="124.1%" x="-16.1%" y="-12.1%" filterUnits="objectBoundingBox">
            <feOffset in="SourceAlpha" result="shadowOffsetOuter1"/>
            <feGaussianBlur in="shadowOffsetOuter1" result="shadowBlurOuter1" stdDeviation="4"/>
            <feColorMatrix in="shadowBlurOuter1" values="0 0 0 0 0.929411765 0 0 0 0 0.941176471 0 0 0 0 0.949019608 0 0 0 1 0"/>
        </filter>
        <path id="m" d="M1.602 112.966H157.27V.896H1.601z"/>
        <filter id="l" width="115.4%" height="121.4%" x="-7.7%" y="-10.7%" filterUnits="objectBoundingBox">
            <feOffset in="SourceAlpha" result="shadowOffsetOuter1"/>
            <feGaussianBlur in="shadowOffsetOuter1" result="shadowBlurOuter1" stdDeviation="4"/>
            <feColorMatrix in="shadowBlurOuter1" values="0 0 0 0 0.929411765 0 0 0 0 0.941176471 0 0 0 0 0.949019608 0 0 0 1 0"/>
        </filter>
        <path id="n" d="M.819.713h155.454v12.1H.82z"/>
        <path id="p" d="M61.12 69.36H8.072c-4.454 0-8.069-3.616-8.069-8.078V8.17C.003 3.708 3.618.092 8.072.092H61.12c4.456 0 8.069 3.616 8.069 8.078v53.112c0 4.462-3.613 8.078-8.07 8.078"/>
        <filter id="o" width="134.7%" height="134.6%" x="-17.3%" y="-17.3%" filterUnits="objectBoundingBox">
            <feOffset in="SourceAlpha" result="shadowOffsetOuter1"/>
            <feGaussianBlur in="shadowOffsetOuter1" result="shadowBlurOuter1" stdDeviation="4"/>
            <feColorMatrix in="shadowBlurOuter1" values="0 0 0 0 0.929411765 0 0 0 0 0.941176471 0 0 0 0 0.949019608 0 0 0 1 0"/>
        </filter>
        <filter id="q" width="141.6%" height="138.6%" x="-20.8%" y="-19.3%" filterUnits="objectBoundingBox">
            <feOffset in="SourceAlpha" result="shadowOffsetOuter1"/>
            <feGaussianBlur in="shadowOffsetOuter1" result="shadowBlurOuter1" stdDeviation="4"/>
            <feColorMatrix in="shadowBlurOuter1" result="shadowMatrixOuter1" values="0 0 0 0 0.929411765 0 0 0 0 0.941176471 0 0 0 0 0.949019608 0 0 0 1 0"/>
            <feMerge>
                <feMergeNode in="shadowMatrixOuter1"/>
                <feMergeNode in="SourceGraphic"/>
            </feMerge>
        </filter>
    </defs>
    <g fill="none" fill-rule="evenodd">
        <path fill="#88B719" d="M38.508 310.566c-.052-.151-.092-.305-.147-.457-.454.72-.879 1.466-1.207 2.286l1.354-1.829z"/>
        <path fill="#FFCEBD" d="M355.114 488.823L344.575 499.6l-18.063-17.68 10.542-10.776zM258.772 501.836l-14.408-4.422 7.417-24.17 14.406 4.424z"/>
        <path fill="#515866" d="M168.848 415.922l-13.824 98.746 4.865.13 25.786-101.974h-16.539zM271.081 415.922l13.824 98.746-4.867.13-25.783-101.974h16.538z"/>
        <path fill="#292C33" d="M282.397 415.922H157.385v-2.651c0-6.581 5.331-11.91 11.907-11.91h101.2c6.576 0 11.905 5.329 11.905 11.91v2.65z"/>
        <path fill="#424854" d="M162.567 377.989l93.614 43.109 80.299 72.327 15.016-14.94-69.1-77.126-69.575-49.496z"/>
        <path fill="#515866" d="M156.951 356.872v17.636c0 15.27 12.372 27.649 27.636 27.649h87.264c-15.67 18.94-24.646 80.014-24.646 80.014l19.652 5.371 34.699-88.853c6.248-16.402-5.858-33.98-23.4-33.98h-62.464l.45-7.837h-59.19z"/>
        <path fill="#EDF0F2" d="M194.338 272.245l16.288 3.074a32.299 32.299 0 0 1 22.99 17.482l13.327 27.095-13.342 30.013-1.356 13.493s-64.657 28.667-80.532 15.676l-.738-68.983 24.406-35.706 18.957-2.144z"/>
        <path fill="#FFCEBD" d="M171.71 252.269s5.163 23.214 4.075 36.709h18.932s-1.954-23.038 1.957-26.83l-24.964-9.88z"/>
        <path fill="#FFCEBD" d="M204.96 233.115c-.239-4.24-1.997-8.226-3.728-12.104l-.705.346c-4.191-4.027-10.636-5.277-16.24-3.747-5.602 1.533-10.328 5.6-13.315 10.589-4.242 7.09-5.054 16.153-2.064 23.86 2.99 7.704 9.737 13.867 17.7 16.061 3.182.88 6.89 1.049 9.48-.996 1.047-.827 1.814-1.948 2.562-3.056 1.912-2.837 3.832-5.798 4.477-9.165.51-2.66.189-5.408.326-8.116.225-4.586 1.765-9.086 1.507-13.672"/>
        <path fill="#666" d="M189.843 210.322c-1.992-1.056-4.182-1.687-6.382-2.191-5.555-1.277-9.302-.917-13.546 3.214-3.204 3.116-5.297 7.436-5.461 11.928-.037 1.021.012 2.062-.295 3.036-.363 1.143-1.18 2.072-1.893 3.038-3.916 5.302-4.576 12.596-2.351 18.72.988 2.723 2.58 5.808 5.15 7.282 2.068 1.187 7.43 2.089 8.445 4.58a25.602 25.602 0 0 1-1.77-12.006c.1-1.056.276-2.144.864-3.026.591-.88 1.689-1.5 2.714-1.232.733.191 1.282.777 1.885 1.237a6.369 6.369 0 0 0 3.79 1.3c.536.004 1.095-.07 1.534-.371.596-.407.86-1.15.998-1.858.676-3.471-.489-7.429-1.611-10.693-.949-2.755-1.128-6.355 2.538-6.124 3.29.209 6.66 2.228 10.176 2.42 7.147.392 14.49-1.752 20.065-6.306a41.766 41.766 0 0 1-17.845-7.833c-2.307-1.754-4.447-3.761-7.005-5.115zM188.84 288.978l5.498-18.039 3.249.612 3.439 28.967z"/>
        <path fill="#FFCEBD" d="M175.12 272.245l-17.321 3.28a25.721 25.721 0 0 0-18.923 15.306l-19.344 46.033c-2.737 6.521 2.046 13.726 9.116 13.726l69.186-3.456 3.193-9.803-7.616 2.591-43.305-3.67c-3.539-.3-5.396-4.352-3.31-7.229l28.99-40.045s5.197-14.305-.666-16.733"/>
        <path fill="#EDF0F2" d="M175.12 272.245l-17.321 3.28a25.721 25.721 0 0 0-18.923 15.306l-13.362 28.409c10.447-1.086 21.282 9.783 28.726 3.918l21.545-34.18s5.198-14.305-.665-16.733"/>
        <path fill="#666" d="M174.967 271.12l13.874 17.857-9.792 12.844-8.885-29.576z"/>
        <path fill="#292C33" d="M241.632 492.942l-4.818 12.211v9.644h59.106v-2.668a5.169 5.169 0 0 0-3.965-5.028l-9.524-2.268-19.918-11.89h-3.533l-1.607 3.535h-10.28l-.962-3.536h-4.5z"/>
        <path fill="#EDF0F2" stroke="#EDF0F2" d="M236.813 509.654v5.142h59.109v-2.668c0-.89-.229-1.734-.631-2.474h-58.478z"/>
        <path fill="#292C33" d="M339.61 497.739l6.907 11.164 7.725 5.764 35.334-47.404-2.135-1.595a5.163 5.163 0 0 0-6.4.179l-7.514 6.28-21.433 8.867-2.113 2.832 1.875 3.404-6.146 8.243-3.41-1.342-2.69 3.608z"/>
        <path fill="#EDF0F2" stroke="#EDF0F2" d="M350.12 511.595l4.12 3.073 35.337-47.405-2.138-1.595a5.124 5.124 0 0 0-2.361-.971l-34.957 46.898z"/>
        <path fill="#515866" d="M112.522 356.36L83.078 523.07h5.108l41.78-164.845zM389.072 356.36L418.52 523.07h-5.108L371.63 358.226z"/>
        <path fill="#292C33" d="M427.325 360.797H65.212a3.215 3.215 0 0 1-3.213-3.215v-5.42a3.215 3.215 0 0 1 3.213-3.215h362.113a3.215 3.215 0 0 1 3.213 3.215v5.42a3.215 3.215 0 0 1-3.213 3.215"/>
        <path fill="#666F80" d="M149.443 349.909h42.325v-5.553h-42.325z"/>
        <path fill="#515866" d="M264.087 349.909h-87.12l20.534-53.18a3.313 3.313 0 0 1 3.092-2.122h80.015c2.33 0 3.931 2.34 3.092 4.511l-19.613 50.79z"/>
        <path fill="#666F80" d="M236.636 322.258a5.432 5.432 0 0 1-10.862 0 5.43 5.43 0 0 1 5.428-5.433 5.432 5.432 0 0 1 5.434 5.433"/>
        <path fill="url(#a)" d="M254.66 129.948h-4.591c-4.172 0-7.567-3.396-7.567-7.572s3.395-7.573 7.567-7.573h2.95v3.21h-2.95a4.365 4.365 0 0 0-4.358 4.363 4.365 4.365 0 0 0 4.358 4.362h4.591v3.21z" transform="translate(37 207)"/>
        <path fill="url(#a)" d="M279.539 112.286h-27.9v8.486a24.063 24.063 0 0 0 6.35 16.288v4.236h15.2v-4.236a24.063 24.063 0 0 0 6.35-16.288v-8.486z" transform="translate(37 207)"/>
        <path fill="#FFF" d="M310.801 319.286v8.486a24.054 24.054 0 0 1-6.352 16.288v4.236h3.28v-4.236a24.063 24.063 0 0 0 6.35-16.288v-8.486h-3.278z" opacity=".2"/>
        <g>
            <g transform="translate(12 70)">
                <use fill="#000" filter="url(#c)" xlink:href="#b"/>
                <use fill="#FFF" xlink:href="#b"/>
            </g>
            <path fill="url(#a)" d="M0 4.69h9.243V0H0zM70 4.69h71.027V0H70zM70 17.69h48V13H70z" transform="translate(22 92)"/>
            <path fill="#EDF0F2" d="M92 122.69h71.027V118H92zM92 135.69h40.697V131H92zM22 109.69h9.243V105H22zM22 122.69h9.243V118H22zM22 135.69h9.243V131H22zM63 113.756l15.36 15.406a21.69 21.69 0 0 0 6.394-15.341C84.756 101.74 75.017 92 63 92v21.756z"/>
            <path fill="url(#a)" d="M18 21.717l21.754.052V0a21.684 21.684 0 0 0-15.36 6.353A21.697 21.697 0 0 0 18 21.717z" transform="translate(22 92)"/>
            <path fill="#EDF0F2" d="M61.766 115.052L40 115c-.002 12.056 9.737 21.799 21.754 21.799a21.686 21.686 0 0 0 15.363-6.354l-15.35-15.393z"/>
        </g>
        <g>
            <g transform="translate(269 148)">
                <use fill="#000" filter="url(#d)" xlink:href="#e"/>
                <use fill="#FFF" xlink:href="#e"/>
            </g>
            <path fill="#EDF0F2" d="M284.833 224.622h5.704v-57.739h-5.704zM294.999 224.622h5.706v-57.739H295zM305.17 224.622h5.704v-57.739h-5.704zM315.34 224.622h5.705v-57.739h-5.704zM325.51 224.622h5.706v-57.739h-5.707zM335.68 224.622h5.707v-57.739h-5.706zM345.852 224.622h5.704v-57.739h-5.704zM356.023 224.622h5.704v-57.739h-5.704zM366.191 224.622h5.707v-57.739h-5.707zM376.362 224.622h5.707v-57.739h-5.707zM386.533 224.622h5.704v-57.739h-5.704z"/>
            <path fill="url(#a)" d="M15.833 76.622h5.704V62.188h-5.704zM25.999 76.622h5.706v-28.87H26zM36.17 76.622h5.704v-28.87H36.17zM46.34 76.622h5.705V29.415H46.34zM56.51 76.622h5.706V39.078h-5.707zM66.68 76.622h5.707V63.54h-5.706zM76.852 76.622h5.704V39.078h-5.704zM87.023 76.622h5.704V59.274h-5.704zM97.191 76.622h5.707v-28.87H97.19zM107.362 76.622h5.707v-39.82h-5.707zM117.533 76.622h5.704V31.397h-5.704zM130.009 27.7h37.083v-5.688h-37.083z" transform="translate(269 148)"/>
            <path fill="#EDF0F2" d="M399.009 188.785h37.083v-2.844h-37.083zM399.009 195.753h37.083v-2.844h-37.083zM399.009 202.72h37.083v-2.843h-37.083zM399.009 209.691h18.543v-2.843h-18.543z"/>
        </g>
        <g>
            <g transform="translate(212 12)">
                <use fill="#000" filter="url(#f)" xlink:href="#g"/>
                <use fill="#FFF" xlink:href="#g"/>
            </g>
            <g transform="translate(223 61)">
                <mask id="i" fill="#fff">
                    <use xlink:href="#h"/>
                </mask>
                <path fill="url(#a)" d="M128.634 14.799c-4.91-.82-8.907-4.492-13.95-4.825-6.549-.435-10.985 4.852-15.663 8.481-6.565 5.095-14.894 11.276-23.356 12.553-5.455.826-9.862-1.593-13.254-5.665-4.394-5.274-6.637-10.067-14.091-11.083-5.755-.783-12.342.662-16.968 4.237-5.71 4.41-9.12 11.661-15.674 14.705-2.325 1.08-4.937 1.515-7.494 1.31-1.673-.136-5.952-2.39-7.432-1.105-1.087.944-.342 5.053-.342 6.498h159.38c-.244 0 .382-35.542-.084-39.117-5.488 2.861-9.67 8.333-15.492 11.19-4.68 2.295-10.343 3.695-15.58 2.82z" mask="url(#i)"/>
            </g>
            <g fill="url(#a)" transform="translate(223 20)">
                <path d="M2.646 5.212A2.397 2.397 0 0 1 .248 2.816a2.397 2.397 0 0 1 4.794 0 2.397 2.397 0 0 1-2.396 2.396zM13.78 5.212a2.395 2.395 0 1 1 0-4.79 2.395 2.395 0 0 1 0 4.79zM24.917 5.212a2.397 2.397 0 0 1-2.398-2.396 2.397 2.397 0 0 1 4.794 0 2.397 2.397 0 0 1-2.396 2.396z"/>
            </g>
        </g>
        <g>
            <g transform="translate(577 280)">
                <use fill="#000" filter="url(#j)" xlink:href="#k"/>
                <use fill="#FFF" xlink:href="#k"/>
            </g>
            <path fill="#F2F3F7" d="M583.503 319.768h12.37v-12.369h-12.37z"/>
            <path fill="#EDF0F2" d="M601.181 310.491h46.898V307.4H601.18zM601.181 318.183h18.81v-3.092h-18.81zM601.181 334.83h46.898v-3.09H601.18zM601.181 342.52h18.81v-3.093h-18.81zM601.181 359.169h46.898v-3.092H601.18zM601.181 366.86h18.81v-3.092h-18.81z"/>
            <path fill="#F2F3F7" d="M583.503 343.313h12.37v-12.369h-12.37zM583.503 366.86h12.37v-12.368h-12.37z"/>
            <path fill="url(#a)" d="M13.008 38.427l-6.371-6.371 2.199-2.197 4.172 4.17 11.004-11 2.199 2.193zM13.008 61.289L6.637 54.92l2.199-2.196 4.172 4.169L24.012 45.89l2.199 2.197zM13.008 84.153l-6.371-6.37 2.199-2.195 4.172 4.167 11.004-11 2.199 2.196z" transform="translate(577 280)"/>
        </g>
        <g>
            <g transform="translate(495 122)">
                <use fill="#000" filter="url(#l)" xlink:href="#m"/>
                <use fill="#FFF" xlink:href="#m"/>
            </g>
            <path fill="url(#a)" d="M9.375 9.469h6.514v-5.49H9.375z" transform="translate(495 122)"/>
            <path fill="#EDF0F2" d="M507.766 171.497h30.044V141.48h-30.044z"/>
            <path fill="url(#a)" d="M53.788 49.497h30.044V19.48H53.788zM94.812 49.497h50.773V19.48H94.812z" transform="translate(495 122)"/>
            <path fill="#EDF0F2" d="M507.55 185.207h60.516v-5.418H507.55zM506.917 197.038h133.67v-2.708h-133.67zM506.917 206.937h133.67v-2.706h-133.67zM507.483 216.838h133.67v-2.708h-133.67zM508.052 226.737h66.863v-2.708h-66.863z"/>
        </g>
        <g>
            <g transform="translate(468 262)">
                <use fill="#000" filter="url(#o)" xlink:href="#p"/>
                <use fill="#FFF" xlink:href="#p"/>
            </g>
            <path fill="url(#a)" d="M.003 8.17C.003 3.708 3.618.092 8.072.092H61.12c4.456 0 8.069 3.616 8.069 8.078v6.479H.003V8.17zM26.748 40.636c.557-.788.832-1.552.832-2.286 0-.736-.24-1.353-.722-1.845-.485-.495-1.103-.741-1.859-.741-1.388 0-2.7.987-3.937 2.962l-3.94-2.33c1.028-1.6 2.159-2.811 3.386-3.63 1.23-.82 2.792-1.228 4.695-1.228 1.903 0 3.57.604 5.01 1.81 1.44 1.212 2.157 2.856 2.157 4.94 0 1.134-.29 2.221-.867 3.263-.576 1.038-1.642 2.368-3.197 3.99l-3.97 4.131h8.695v4.415H17.5v-3.659l6.459-6.623c1.301-1.326 2.23-2.383 2.79-3.169M50.671 32.04v4.258h-8.692v3.691c.65-.189 1.393-.286 2.233-.286 2.124 0 3.95.645 5.483 1.923 1.535 1.286 2.3 3.014 2.3 5.19 0 2.177-.792 3.975-2.377 5.393-1.585 1.42-3.545 2.131-5.875 2.131-2.982 0-5.47-1.104-7.468-3.312l2.584-3.597c.188.192.442.42.757.694.316.276.892.64 1.732 1.09.84.452 1.682.678 2.521.678.84 0 1.583-.253 2.236-.758.65-.503.976-1.251.976-2.239 0-.99-.352-1.748-1.055-2.285-.704-.538-1.613-.806-2.726-.806s-2.404.403-3.873 1.199l-2.069-.058.02-12.906h13.293z" transform="translate(468 262)"/>
        </g>
        <g filter="url(#q)" transform="translate(437 17)">
            <path fill="#EDF0F2" d="M68.302 82.027c4.134 0 7.488-3.358 7.488-7.499V40.272a4.637 4.637 0 0 0-4.636-4.64H5.608a4.678 4.678 0 0 0-4.675 4.68v34.766c0 3.838 3.108 6.95 6.941 6.95h60.428z"/>
            <path fill="#EDF0F2" d="M1.78 37.308L33.123 11.74a9.21 9.21 0 0 1 10.878 0l29.64 24.53L1.78 37.309z"/>
            <path fill="url(#a)" d="M22.76.142L11.792 10.805V69.34H63.73V4.547a4.402 4.402 0 0 0-4.4-4.405H22.76z"/>
            <path fill="#35AC35" d="M22.107 9.698L11.793 21.509V10.804z"/>
            <path fill="url(#a)" d="M22.76.142L11.792 10.805h8.042a2.927 2.927 0 0 0 2.926-2.93V.142z"/>
            <path fill="#FFF" d="M32.013 60.188L1.781 37.308s-.848 2.08-.848 5.987v36.863c0 1.696 1.24 1.81 2.17 2.051 0 0 28.91-20.19 28.91-22.021zM45.896 59.758l29.35-21.591s1.096 1.22 1.096 5.128v36.863c0 1.696-1.24 1.81-2.168 2.051 0 0-28.278-20.62-28.278-22.451z"/>
            <path fill="#EDF0F2" d="M2.809 82.255L33.23 57.209a9.106 9.106 0 0 1 10.754 0l30.424 25.046h-71.6z"/>
            <path fill="#FFF" fill-rule="nonzero" d="M33 37h-4V22h4zM42 37h-4V16h4zM50 37h-4v-9h4z"/>
        </g>
    </g>
</svg>
